# compile vhdl design source files
vhdl xil_defaultlib  \
"../../../../prem_watchdog.srcs/sources_1/new/prem_cntr_gpio.vhd" \
"../../../../prem_watchdog.ip_user_files/bd/ps_pl_top_configuration/sim/ps_pl_top_configuration.vhd" \
"../../../../prem_watchdog.ip_user_files/bd/ps_pl_top_configuration/ip/ps_pl_top_configuration_prem_cntr_gpio_0_0/sim/ps_pl_top_configuration_prem_cntr_gpio_0_0.vhd" \
"../../../../prem_watchdog.ip_user_files/bd/ps_pl_top_configuration/ip/ps_pl_top_configuration_axi_gpio_0_0/sim/ps_pl_top_configuration_axi_gpio_0_0.vhd" \
"../../../../prem_watchdog.ip_user_files/bd/ps_pl_top_configuration/ip/ps_pl_top_configuration_axi_gpio_1_0/sim/ps_pl_top_configuration_axi_gpio_1_0.vhd" \
"../../../../prem_watchdog.ip_user_files/bd/ps_pl_top_configuration/ip/ps_pl_top_configuration_axi_gpio_2_0/sim/ps_pl_top_configuration_axi_gpio_2_0.vhd" \
"../../../../prem_watchdog.ip_user_files/bd/ps_pl_top_configuration/ip/ps_pl_top_configuration_axi_gpio_2_1/sim/ps_pl_top_configuration_axi_gpio_2_1.vhd" \
"../../../../prem_watchdog.ip_user_files/bd/ps_pl_top_configuration/ip/ps_pl_top_configuration_rst_ps8_0_99M_1/sim/ps_pl_top_configuration_rst_ps8_0_99M_1.vhd" \
"../../../../prem_watchdog.srcs/sources_1/bd/ps_pl_top_configuration/hdl/ps_pl_top_configuration_wrapper.vhd" \

# Do not sort compile order
nosort
